%YAML 1.1
%TAG !u! tag:unity3d.com,2011:
--- !u!74 &7400000
AnimationClip:
  m_ObjectHideFlags: 0
  m_CorrespondingSourceObject: {fileID: 0}
  m_PrefabInstance: {fileID: 0}
  m_PrefabAsset: {fileID: 0}
  m_Name: deathAnimation
  serializedVersion: 6
  m_Legacy: 0
  m_Compressed: 0
  m_UseHighQualityCurve: 1
  m_RotationCurves: []
  m_CompressedRotationCurves: []
  m_EulerCurves: []
  m_PositionCurves: []
  m_ScaleCurves: []
  m_FloatCurves: []
  m_PPtrCurves:
  - curve:
    - time: 0
      value: {fileID: 21300000, guid: cc2e02d689ead9444aaf09acce13ed02, type: 3}
    - time: 0.083333336
      value: {fileID: 21300000, guid: d81847593ae321f4c8697b408b965416, type: 3}
    - time: 0.16666667
      value: {fileID: 21300000, guid: 0b73e0b6d94857148b38f96964f4eea9, type: 3}
    - time: 0.25
      value: {fileID: 21300000, guid: 68d596fc2432df545889e713d4926fb6, type: 3}
    - time: 0.33333334
      value: {fileID: 21300000, guid: 4f54e652cf5b83341885191eb1106560, type: 3}
    - time: 0.41666666
      value: {fileID: 21300000, guid: b39bb87b5c352d847a961422f780b347, type: 3}
    - time: 0.5
      value: {fileID: 21300000, guid: f56c9256c2a3fe2479ab3d95c22d72ef, type: 3}
    - time: 0.5833333
      value: {fileID: 21300000, guid: 4afc5ae99ff511e47ac31afbe0a0847b, type: 3}
    attribute: m_Sprite
    path: 
    classID: 212
    script: {fileID: 0}
  m_SampleRate: 12
  m_WrapMode: 0
  m_Bounds:
    m_Center: {x: 0, y: 0, z: 0}
    m_Extent: {x: 0, y: 0, z: 0}
  m_ClipBindingConstant:
    genericBindings:
    - serializedVersion: 2
      path: 0
      attribute: 0
      script: {fileID: 0}
      typeID: 212
      customType: 23
      isPPtrCurve: 1
    pptrCurveMapping:
    - {fileID: 21300000, guid: cc2e02d689ead9444aaf09acce13ed02, type: 3}
    - {fileID: 21300000, guid: d81847593ae321f4c8697b408b965416, type: 3}
    - {fileID: 21300000, guid: 0b73e0b6d94857148b38f96964f4eea9, type: 3}
    - {fileID: 21300000, guid: 68d596fc2432df545889e713d4926fb6, type: 3}
    - {fileID: 21300000, guid: 4f54e652cf5b83341885191eb1106560, type: 3}
    - {fileID: 21300000, guid: b39bb87b5c352d847a961422f780b347, type: 3}
    - {fileID: 21300000, guid: f56c9256c2a3fe2479ab3d95c22d72ef, type: 3}
    - {fileID: 21300000, guid: 4afc5ae99ff511e47ac31afbe0a0847b, type: 3}
  m_AnimationClipSettings:
    serializedVersion: 2
    m_AdditiveReferencePoseClip: {fileID: 0}
    m_AdditiveReferencePoseTime: 0
    m_StartTime: 0
    m_StopTime: 0.6666666
    m_OrientationOffsetY: 0
    m_Level: 0
    m_CycleOffset: 0
    m_HasAdditiveReferencePose: 0
    m_LoopTime: 1
    m_LoopBlend: 0
    m_LoopBlendOrientation: 0
    m_LoopBlendPositionY: 0
    m_LoopBlendPositionXZ: 0
    m_KeepOriginalOrientation: 0
    m_KeepOriginalPositionY: 1
    m_KeepOriginalPositionXZ: 0
    m_HeightFromFeet: 0
    m_Mirror: 0
  m_EditorCurves: []
  m_EulerEditorCurves: []
  m_HasGenericRootTransform: 0
  m_HasMotionFloatCurves: 0
  m_Events: []
