%YAML 1.1
%TAG !u! tag:unity3d.com,2011:
--- !u!74 &7400000
AnimationClip:
  m_ObjectHideFlags: 0
  m_CorrespondingSourceObject: {fileID: 0}
  m_PrefabInstance: {fileID: 0}
  m_PrefabAsset: {fileID: 0}
  m_Name: deathHider
  serializedVersion: 6
  m_Legacy: 0
  m_Compressed: 0
  m_UseHighQualityCurve: 1
  m_RotationCurves: []
  m_CompressedRotationCurves: []
  m_EulerCurves: []
  m_PositionCurves: []
  m_ScaleCurves: []
  m_FloatCurves: []
  m_PPtrCurves:
  - curve:
    - time: 0
      value: {fileID: -6614586521632937118, guid: 2c6414baa22abf04abf63bb5e31768e9,
        type: 3}
    - time: 0.083333336
      value: {fileID: 7787930521167051594, guid: 2c6414baa22abf04abf63bb5e31768e9,
        type: 3}
    - time: 0.16666667
      value: {fileID: -3738559018161832425, guid: 2c6414baa22abf04abf63bb5e31768e9,
        type: 3}
    - time: 0.25
      value: {fileID: -1494230700628939254, guid: 2c6414baa22abf04abf63bb5e31768e9,
        type: 3}
    - time: 0.33333334
      value: {fileID: -2935723699956221196, guid: 2c6414baa22abf04abf63bb5e31768e9,
        type: 3}
    - time: 0.41666666
      value: {fileID: -1231933500836139453, guid: 2c6414baa22abf04abf63bb5e31768e9,
        type: 3}
    - time: 0.5
      value: {fileID: 385163891628844806, guid: b5bd45966094cd647bd76b1ab5efe65a,
        type: 3}
    - time: 0.5833333
      value: {fileID: 7918323685674887293, guid: b5bd45966094cd647bd76b1ab5efe65a,
        type: 3}
    - time: 0.6666667
      value: {fileID: -7001628936140403417, guid: b5bd45966094cd647bd76b1ab5efe65a,
        type: 3}
    - time: 0.8333333
      value: {fileID: 1638994095850669176, guid: b5bd45966094cd647bd76b1ab5efe65a,
        type: 3}
    - time: 0.9166667
      value: {fileID: -4166448893931616421, guid: b5bd45966094cd647bd76b1ab5efe65a,
        type: 3}
    - time: 1
      value: {fileID: -6989444322148716689, guid: b5bd45966094cd647bd76b1ab5efe65a,
        type: 3}
    - time: 1.0833334
      value: {fileID: 2933310425891383523, guid: b5bd45966094cd647bd76b1ab5efe65a,
        type: 3}
    - time: 1.1666666
      value: {fileID: -512625646230141503, guid: b5bd45966094cd647bd76b1ab5efe65a,
        type: 3}
    - time: 1.25
      value: {fileID: 7438428739902963417, guid: b5bd45966094cd647bd76b1ab5efe65a,
        type: 3}
    - time: 1.3333334
      value: {fileID: -5497845183234536222, guid: b5bd45966094cd647bd76b1ab5efe65a,
        type: 3}
    - time: 1.4166666
      value: {fileID: 1284078919682861982, guid: b5bd45966094cd647bd76b1ab5efe65a,
        type: 3}
    - time: 1.5
      value: {fileID: -950585520771254718, guid: b5bd45966094cd647bd76b1ab5efe65a,
        type: 3}
    attribute: m_Sprite
    path: 
    classID: 212
    script: {fileID: 0}
  m_SampleRate: 12
  m_WrapMode: 0
  m_Bounds:
    m_Center: {x: 0, y: 0, z: 0}
    m_Extent: {x: 0, y: 0, z: 0}
  m_ClipBindingConstant:
    genericBindings:
    - serializedVersion: 2
      path: 0
      attribute: 0
      script: {fileID: 0}
      typeID: 212
      customType: 23
      isPPtrCurve: 1
    pptrCurveMapping:
    - {fileID: -6614586521632937118, guid: 2c6414baa22abf04abf63bb5e31768e9, type: 3}
    - {fileID: 7787930521167051594, guid: 2c6414baa22abf04abf63bb5e31768e9, type: 3}
    - {fileID: -3738559018161832425, guid: 2c6414baa22abf04abf63bb5e31768e9, type: 3}
    - {fileID: -1494230700628939254, guid: 2c6414baa22abf04abf63bb5e31768e9, type: 3}
    - {fileID: -2935723699956221196, guid: 2c6414baa22abf04abf63bb5e31768e9, type: 3}
    - {fileID: -1231933500836139453, guid: 2c6414baa22abf04abf63bb5e31768e9, type: 3}
    - {fileID: 385163891628844806, guid: b5bd45966094cd647bd76b1ab5efe65a, type: 3}
    - {fileID: 7918323685674887293, guid: b5bd45966094cd647bd76b1ab5efe65a, type: 3}
    - {fileID: -7001628936140403417, guid: b5bd45966094cd647bd76b1ab5efe65a, type: 3}
    - {fileID: 1638994095850669176, guid: b5bd45966094cd647bd76b1ab5efe65a, type: 3}
    - {fileID: -4166448893931616421, guid: b5bd45966094cd647bd76b1ab5efe65a, type: 3}
    - {fileID: -6989444322148716689, guid: b5bd45966094cd647bd76b1ab5efe65a, type: 3}
    - {fileID: 2933310425891383523, guid: b5bd45966094cd647bd76b1ab5efe65a, type: 3}
    - {fileID: -512625646230141503, guid: b5bd45966094cd647bd76b1ab5efe65a, type: 3}
    - {fileID: 7438428739902963417, guid: b5bd45966094cd647bd76b1ab5efe65a, type: 3}
    - {fileID: -5497845183234536222, guid: b5bd45966094cd647bd76b1ab5efe65a, type: 3}
    - {fileID: 1284078919682861982, guid: b5bd45966094cd647bd76b1ab5efe65a, type: 3}
    - {fileID: -950585520771254718, guid: b5bd45966094cd647bd76b1ab5efe65a, type: 3}
  m_AnimationClipSettings:
    serializedVersion: 2
    m_AdditiveReferencePoseClip: {fileID: 0}
    m_AdditiveReferencePoseTime: 0
    m_StartTime: 0
    m_StopTime: 1.5833334
    m_OrientationOffsetY: 0
    m_Level: 0
    m_CycleOffset: 0
    m_HasAdditiveReferencePose: 0
    m_LoopTime: 0
    m_LoopBlend: 0
    m_LoopBlendOrientation: 0
    m_LoopBlendPositionY: 0
    m_LoopBlendPositionXZ: 0
    m_KeepOriginalOrientation: 0
    m_KeepOriginalPositionY: 1
    m_KeepOriginalPositionXZ: 0
    m_HeightFromFeet: 0
    m_Mirror: 0
  m_EditorCurves: []
  m_EulerEditorCurves: []
  m_HasGenericRootTransform: 0
  m_HasMotionFloatCurves: 0
  m_Events: []
