%YAML 1.1
%TAG !u! tag:unity3d.com,2011:
--- !u!1045 &1
EditorBuildSettings:
  m_ObjectHideFlags: 0
  serializedVersion: 2
  m_Scenes:
  - enabled: 1
    path: Assets/Scenes/Pantalla Inicio.unity
    guid: dd96be089af9f864993824c3f4f02400
  - enabled: 1
    path: Assets/Scenes/Menu.unity
    guid: ebc85380a1ab84343a47b1ab354698bb
  - enabled: 1
    path: Assets/Scenes/Future Map.unity
    guid: 2cda990e2423bbf4892e6590ba056729
  - enabled: 1
    path: Assets/Scenes/Antique Map.unity
    guid: 86e89bd9e4a9c5245a015cf17e3c0aae
  - enabled: 0
    path: Assets/Scenes/Loading Screen.unity
    guid: b568a48df7f389b409b9c172d8258d46
  m_configObjects: {}
